01-01-2020|21-9|1-10|d
11-05-2020|1-10|25-9|r
29-09-2020|25-9|13-10|d
23-05-2021|13-10|6-10|r
11-10-2021|6-10|25-10|d
04-06-2022|25-10|18-10|r
23-10-2022|18-10|7-11|d
17-06-2023|7-11|0-11|r
04-11-2023|0-11|19-11|d
29-06-2024|19-11|12-11|r
15-11-2024|12-11|1-0|d
13-07-2025|1-0|25-11|r
28-11-2025|25-11|14-0|d
26-07-2026|14-0|7-0|r
10-12-2026|7-0|27-0|d
09-08-2027|27-0|21-0|r
24-12-2027|21-0|11-1|d
22-08-2028|11-1|4-1|r
05-01-2029|4-1|25-1|d
06-09-2029|25-1|18-1|r
19-01-2030|18-1|8-2|d
20-09-2030|8-2|1-2|r
02-02-2031|1-2|23-2|d